<?xml version="1.0" encoding="utf-8"?>
<!-- Generator: Adobe Illustrator 16.0.0, SVG Export Plug-In . SVG Version: 6.00 Build 0)  -->
<!DOCTYPE svg PUBLIC "-//W3C//DTD SVG 1.1//EN" "http://www.w3.org/Graphics/SVG/1.1/DTD/svg11.dtd">
<svg version="1.1" id="Layer_1" xmlns="http://www.w3.org/2000/svg" xmlns:xlink="http://www.w3.org/1999/xlink" x="0px" y="0px"
	 width="500px" height="100px" viewBox="0 0 500 100" enable-background="new 0 0 500 100" xml:space="preserve">
<path fill="#FFFFFF" d="M24.48,15.405v26.537h30.403v9.22H24.48v36.63h-10.59V6.184h49.462v9.221H24.48z"/>
<path fill="#FFFFFF" d="M96.047,15.405v26.537h30.397v9.22H96.047v27.41h41.488v9.22H85.455V6.184h49.465v9.221H96.047z"/>
<path fill="#FFFFFF" d="M205.611,73.215l26.411-67.031h16.322v81.608h-10.215V15.405l-28.407,72.387h-8.971l-28.407-72.387v72.387
	h-10.218V6.184h16.573L205.611,73.215z"/>
<path fill="#FFFFFF" d="M294.822,78.586c0,13.331-8.724,18.066-16.697,18.066c-4.485,0-8.847-1.495-11.961-4.237l2.492-4.485
	c2.492,0.873,4.733,1.371,6.603,1.371c5.98,0,8.971-4.609,8.971-12.957V6.184h10.593V78.586z"/>
<path fill="#FFFFFF" d="M367.242,4.19c25.544,0,36.257,22.552,36.257,42.86c0,21.681-11.462,42.735-39.619,42.735
	c-25.543,0-36.257-22.551-36.257-42.859C327.623,25.247,339.086,4.19,367.242,4.19z M366.994,80.44
	c15.948,0,25.541-14.951,25.541-30.648c0-20.433-7.352-36.133-28.407-36.133c-15.947,0-25.54,14.827-25.54,30.525
	C338.588,64.617,345.939,80.44,366.994,80.44z"/>
<path fill="#FFFFFF" d="M452.841,44.808l23.42-38.625H487.6l-29.775,46.972v34.637h-10.593V53.281L417.58,6.184h11.834
	L452.841,44.808z"/>
</svg>
